C:\Users\Test\Google Drive\Etudes\Supaero\2A\PIR\pirmodeling\To upload\Source code\src\main\java\com\MB2DM\Analyse\FullModel\FullModel.java
C:\Users\Test\Google Drive\Etudes\Supaero\2A\PIR\pirmodeling\To upload\Source code\src\main\java\com\MB2DM\MB2DM.java
C:\Users\Test\Google Drive\Etudes\Supaero\2A\PIR\pirmodeling\To upload\Source code\src\main\java\com\MB2DM\Analyse\ModelParts\Functions.java
C:\Users\Test\Google Drive\Etudes\Supaero\2A\PIR\pirmodeling\To upload\Source code\src\main\java\com\MB2DM\Analyse\ModelParts\Diagram.java
C:\Users\Test\Google Drive\Etudes\Supaero\2A\PIR\pirmodeling\To upload\Source code\src\main\java\com\MB2DM\MatrixMaker\MatrixMaker.java
C:\Users\Test\Google Drive\Etudes\Supaero\2A\PIR\pirmodeling\To upload\Source code\src\main\java\com\MB2DM\gui\PanelChooser.java
C:\Users\Test\Google Drive\Etudes\Supaero\2A\PIR\pirmodeling\To upload\Source code\src\main\java\com\MB2DM\gui\PanelHistory.java
C:\Users\Test\Google Drive\Etudes\Supaero\2A\PIR\pirmodeling\To upload\Source code\src\main\java\com\MB2DM\MatrixMaker\Matrix.java
C:\Users\Test\Google Drive\Etudes\Supaero\2A\PIR\pirmodeling\To upload\Source code\src\main\java\com\MB2DM\Analyse\ModelParts\Components.java
C:\Users\Test\Google Drive\Etudes\Supaero\2A\PIR\pirmodeling\To upload\Source code\src\main\java\com\MB2DM\ExcelWriter\SheetWriter.java
C:\Users\Test\Google Drive\Etudes\Supaero\2A\PIR\pirmodeling\To upload\Source code\src\main\java\com\MB2DM\gui\ListenerBINARY.java
C:\Users\Test\Google Drive\Etudes\Supaero\2A\PIR\pirmodeling\To upload\Source code\src\main\java\com\MB2DM\gui\MyFrame.java
C:\Users\Test\Google Drive\Etudes\Supaero\2A\PIR\pirmodeling\To upload\Source code\src\main\java\com\MB2DM\gui\PanelGlobal.java
C:\Users\Test\Google Drive\Etudes\Supaero\2A\PIR\pirmodeling\To upload\Source code\src\main\java\com\MB2DM\gui\ListenerFileChooser.java
C:\Users\Test\Google Drive\Etudes\Supaero\2A\PIR\pirmodeling\To upload\Source code\src\main\java\com\MB2DM\gui\History.java
C:\Users\Test\Google Drive\Etudes\Supaero\2A\PIR\pirmodeling\To upload\Source code\src\main\java\com\MB2DM\Constants\Constants.java
C:\Users\Test\Google Drive\Etudes\Supaero\2A\PIR\pirmodeling\To upload\Source code\src\main\java\com\MB2DM\MatrixMaker\MDMMaker.java
C:\Users\Test\Google Drive\Etudes\Supaero\2A\PIR\pirmodeling\To upload\Source code\src\main\java\com\MB2DM\Analyse\ExtendedElement.java
C:\Users\Test\Google Drive\Etudes\Supaero\2A\PIR\pirmodeling\To upload\Source code\src\main\java\com\MB2DM\gui\Mytabbedpane.java
C:\Users\Test\Google Drive\Etudes\Supaero\2A\PIR\pirmodeling\To upload\Source code\src\main\java\com\MB2DM\MatrixMaker\DSMMaker.java
C:\Users\Test\Google Drive\Etudes\Supaero\2A\PIR\pirmodeling\To upload\Source code\src\main\java\com\MB2DM\Analyse\Relations\Relation.java
C:\Users\Test\Google Drive\Etudes\Supaero\2A\PIR\pirmodeling\To upload\Source code\src\main\java\com\MB2DM\MatrixMaker\DMMMaker.java
C:\Users\Test\Google Drive\Etudes\Supaero\2A\PIR\pirmodeling\To upload\Source code\src\main\java\com\MB2DM\gui\Fermeture.java
C:\Users\Test\Google Drive\Etudes\Supaero\2A\PIR\pirmodeling\To upload\Source code\src\main\java\com\MB2DM\XMLTreatment\XMLAnalyser.java
C:\Users\Test\Google Drive\Etudes\Supaero\2A\PIR\pirmodeling\To upload\Source code\src\main\java\com\MB2DM\Analyse\ModelParts\Requirements.java
C:\Users\Test\Google Drive\Etudes\Supaero\2A\PIR\pirmodeling\To upload\Source code\src\main\java\com\MB2DM\gui\ListenerBOTH.java
C:\Users\Test\Google Drive\Etudes\Supaero\2A\PIR\pirmodeling\To upload\Source code\src\main\java\com\MB2DM\gui\ListenerDIRECTED.java
C:\Users\Test\Google Drive\Etudes\Supaero\2A\PIR\pirmodeling\To upload\Source code\src\main\java\com\MB2DM\UserCommand\UserCommand.java
C:\Users\Test\Google Drive\Etudes\Supaero\2A\PIR\pirmodeling\To upload\Source code\src\main\java\com\MB2DM\XMLTreatment\XMLParser.java
C:\Users\Test\Google Drive\Etudes\Supaero\2A\PIR\pirmodeling\To upload\Source code\src\main\java\com\MB2DM\gui\PanelModule.java
C:\Users\Test\Google Drive\Etudes\Supaero\2A\PIR\pirmodeling\To upload\Source code\src\main\java\com\MB2DM\Analyse\Relations\Connection.java
